{
  "project_info": {
    "project_number": "290747830404",
    "firebase_url": "https://aplicacion-drawer.firebaseio.com",
    "project_id": "aplicacion-drawer",
    "storage_bucket": "aplicacion-drawer.appspot.com"
  },
  "client": [
    {
      "client_info": {
        "mobilesdk_app_id": "1:290747830404:android:b9d6cf7b67154aeb7872d1",
        "android_client_info": {
          "package_name": "aplicacion1.org.nativescript.drawer"
        }
      },
      "oauth_client": [
        {
          "client_id": "290747830404-mifuj2uq0r1rq18fb250vmenrd128ors.apps.googleusercontent.com",
          "client_type": 3
        }
      ],
      "api_key": [
        {
          "current_key": "AIzaSyDvq3X8Fcdt46gPSSlUPnmNyeP04FbwjD8"
        }
      ],
      "services": {
        "appinvite_service": {
          "other_platform_oauth_client": [
            {
              "client_id": "290747830404-mifuj2uq0r1rq18fb250vmenrd128ors.apps.googleusercontent.com",
              "client_type": 3
            }
          ]
        }
      }
    }
  ],
  "configuration_version": "1"
}